<?xml version="1.0" encoding="UTF-8"?>
<!DOCTYPE svg PUBLIC "-//W3C//DTD SVG 1.1//EN" "http://www.w3.org/Graphics/SVG/1.1/DTD/svg11.dtd">
<!-- Creator: CorelDRAW 2021 (64-Bit) -->
<svg xmlns="http://www.w3.org/2000/svg" xml:space="preserve" width="122px" height="59px" version="1.1" style="shape-rendering:geometricPrecision; text-rendering:geometricPrecision; image-rendering:optimizeQuality; fill-rule:evenodd; clip-rule:evenodd"
viewBox="0 0 11.15 5.37"
 xmlns:xlink="http://www.w3.org/1999/xlink"
 xmlns:xodm="http://www.corel.com/coreldraw/odm/2003">
 <defs>
  <style type="text/css">
   <![CDATA[
    .fil1 {fill:#FEFEFE}
    .fil2 {fill:#373435}
    .fil0 {fill:#ED2C70}
   ]]>
  </style>
 </defs>
 <g id="Capa_x0020_1">
  <metadata id="CorelCorpID_0Corel-Layer"/>
  <g id="_1378587148608">
   <g>
    <polygon class="fil0" points="9.62,2.78 0,2.78 0,0 9.62,0 "/>
    <polygon class="fil1" points="11.12,5.33 1.59,5.33 1.59,2.57 11.12,2.57 "/>
    <path class="fil0" d="M1.63 5.29l9.45 0 0 -2.68 -9.45 0 0 2.68zm9.52 0.08l0 0 -9.6 0 0 -2.84 9.6 0 0 2.84z"/>
    <path class="fil1" d="M1.42 2.05c0.19,0 0.3,-0.15 0.3,-0.33 0,-0.19 -0.11,-0.34 -0.3,-0.34 -0.21,0 -0.33,0.15 -0.33,0.34 0,0.2 0.14,0.33 0.33,0.33zm-0.33 0.33l0 0c-0.38,0 -0.38,0 -0.38,0 0,-1.81 0,-1.81 0,-1.81 0.4,0 0.4,0 0.4,0 0,0.58 0,0.58 0,0.58 0.08,-0.06 0.19,-0.12 0.35,-0.12 0.42,0 0.67,0.27 0.67,0.69 0,0.39 -0.27,0.68 -0.69,0.68 -0.14,0 -0.27,-0.04 -0.35,-0.1l0 0.08z"/>
    <path class="fil1" d="M2.64 2.38c-0.4,0 -0.4,0 -0.4,0 0,-1.33 0,-1.33 0,-1.33 0.4,0 0.4,0 0.4,0l0 1.33zm-0.44 -1.59l0 0c0,-0.14 0.1,-0.23 0.23,-0.23 0.12,0 0.23,0.09 0.23,0.23 0,0.11 -0.11,0.21 -0.23,0.21 -0.13,0 -0.23,-0.1 -0.23,-0.21z"/>
    <polygon class="fil1" points="3.2,2.38 2.8,2.38 2.8,0.57 3.2,0.57 "/>
    <polygon class="fil1" points="3.76,2.38 3.35,2.38 3.35,0.57 3.76,0.57 "/>
    <path class="fil1" d="M4.29 1.57c0.48,0 0.48,0 0.48,0 -0.02,-0.11 -0.09,-0.21 -0.25,-0.21 -0.13,0 -0.21,0.1 -0.23,0.21zm0 0.27l0 0c0.02,0.13 0.12,0.21 0.27,0.21 0.14,0 0.21,-0.08 0.27,-0.15 0.31,0.17 0.31,0.17 0.31,0.17 -0.08,0.15 -0.25,0.33 -0.58,0.33 -0.4,0 -0.69,-0.25 -0.69,-0.68 0,-0.4 0.27,-0.69 0.65,-0.69 0.41,0 0.65,0.27 0.65,0.66 0,0.05 0,0.09 0,0.15l-0.88 0z"/>
    <path class="fil1" d="M5.75 1.05c0.17,0 0.17,0 0.17,0 0,0.35 0,0.35 0,0.35 -0.17,0 -0.17,0 -0.17,0 0,0.52 0,0.52 0,0.52 0,0.09 0.04,0.11 0.11,0.11 0.06,0 0.06,0 0.06,0 0,0.35 0,0.35 0,0.35 0,0 -0.06,0.02 -0.19,0.02 -0.27,0 -0.38,-0.14 -0.38,-0.37 0,-0.63 0,-0.63 0,-0.63 -0.12,0 -0.12,0 -0.12,0 0,-0.35 0,-0.35 0,-0.35 0.12,0 0.12,0 0.12,0 0,-0.21 0,-0.21 0,-0.21 0.4,0 0.4,0 0.4,0l0 0.21z"/>
    <path class="fil1" d="M6.4 1.57c0.48,0 0.48,0 0.48,0 -0.02,-0.11 -0.1,-0.21 -0.25,-0.21 -0.13,0 -0.21,0.1 -0.23,0.21zm0 0.27l0 0c0.02,0.13 0.12,0.21 0.27,0.21 0.13,0 0.23,-0.08 0.27,-0.15 0.3,0.17 0.3,0.17 0.3,0.17 -0.07,0.15 -0.25,0.33 -0.57,0.33 -0.4,0 -0.69,-0.25 -0.69,-0.68 0,-0.4 0.27,-0.69 0.65,-0.69 0.4,0 0.65,0.27 0.65,0.66 0,0.05 0,0.09 0,0.15l-0.88 0z"/>
    <path class="fil1" d="M8.03 1.48c-0.1,0 -0.1,0 -0.1,0 -0.11,0 -0.13,0.03 -0.13,0.11 0,0.79 0,0.79 0,0.79 -0.4,0 -0.4,0 -0.4,0 0,-1.33 0,-1.33 0,-1.33 0.4,0 0.4,0 0.4,0 0,0.1 0,0.1 0,0.1 0.06,-0.08 0.11,-0.1 0.23,-0.1l0 0.43z"/>
    <path class="fil1" d="M8.6 2.09c0.08,0 0.16,-0.08 0.16,-0.15 0,-0.1 -0.08,-0.16 -0.16,-0.16 -0.09,0 -0.15,0.06 -0.15,0.16 0,0.07 0.06,0.15 0.15,0.15zm-0.07 -0.58l0 0c0.09,0 0.17,0.02 0.21,0.04 0,-0.06 0,-0.06 0,-0.06 0,-0.07 -0.02,-0.13 -0.14,-0.13 -0.07,0 -0.11,0.06 -0.11,0.12 -0.36,0 -0.36,0 -0.36,0 0,-0.27 0.15,-0.45 0.47,-0.45 0.43,0 0.54,0.23 0.54,0.52 0,0.83 0,0.83 0,0.83 -0.32,0 -0.32,0 -0.32,0 0,-0.06 0,-0.06 0,-0.06 -0.08,0.04 -0.16,0.08 -0.29,0.08 -0.25,0 -0.46,-0.18 -0.46,-0.46 0,-0.25 0.17,-0.43 0.46,-0.43z"/>
    <path class="fil2" d="M2.8 4.52c0.3,0 0.52,-0.23 0.52,-0.55 0,-0.33 -0.22,-0.56 -0.52,-0.56 -0.31,0 -0.54,0.23 -0.54,0.56 0,0.32 0.23,0.55 0.54,0.55zm-0.52 0.54l0 0c-0.15,0 -0.15,0 -0.15,0 0,-1.76 0,-1.76 0,-1.76 0.15,0 0.15,0 0.15,0 0,0.25 0,0.25 0,0.25 0.08,-0.14 0.27,-0.27 0.52,-0.27 0.38,0 0.67,0.27 0.67,0.69 0,0.38 -0.27,0.69 -0.67,0.69 -0.29,0 -0.46,-0.18 -0.52,-0.27l0 0.67z"/>
    <path class="fil2" d="M3.76 3.87c0.99,0 0.99,0 0.99,0 -0.02,-0.31 -0.23,-0.46 -0.5,-0.46 -0.26,0 -0.46,0.17 -0.49,0.46zm0 0.14l0 0c0.02,0.3 0.21,0.51 0.51,0.51 0.25,0 0.41,-0.13 0.5,-0.32 0.12,0.04 0.12,0.04 0.12,0.04 -0.1,0.23 -0.31,0.42 -0.62,0.42 -0.4,0 -0.67,-0.29 -0.67,-0.69 0,-0.41 0.27,-0.69 0.65,-0.69 0.39,0 0.64,0.25 0.66,0.65 0,0.02 0,0.04 0,0.08l-1.15 0z"/>
    <path class="fil2" d="M5.58 3.43c-0.04,0 -0.04,0 -0.04,0 -0.19,0 -0.29,0.13 -0.29,0.35 0,0.84 0,0.84 0,0.84 -0.15,0 -0.15,0 -0.15,0 0,-1.32 0,-1.32 0,-1.32 0.15,0 0.15,0 0.15,0 0,0.15 0,0.15 0,0.15 0.04,-0.08 0.14,-0.15 0.33,-0.15l0 0.13z"/>
    <path class="fil2" d="M5.96 3.81c0.1,0.04 0.17,0.06 0.25,0.1 0.17,0.06 0.27,0.17 0.27,0.36 0,0.23 -0.19,0.37 -0.42,0.37 -0.31,0 -0.43,-0.19 -0.43,-0.42 0.16,0 0.16,0 0.16,0 0,0.17 0.07,0.3 0.27,0.3 0.15,0 0.26,-0.07 0.26,-0.25 0,-0.13 -0.05,-0.19 -0.17,-0.25 -0.08,-0.01 -0.17,-0.03 -0.25,-0.07 -0.17,-0.08 -0.23,-0.19 -0.23,-0.33 0,-0.21 0.16,-0.34 0.39,-0.34 0.28,0 0.38,0.19 0.38,0.38 -0.14,0 -0.14,0 -0.14,0 -0.01,-0.15 -0.09,-0.25 -0.24,-0.25 -0.14,0 -0.23,0.06 -0.23,0.19 0,0.12 0.03,0.18 0.13,0.21z"/>
    <path class="fil2" d="M7.28 4.52c0.31,0 0.54,-0.23 0.54,-0.55 0,-0.33 -0.23,-0.56 -0.54,-0.56 -0.3,0 -0.52,0.23 -0.52,0.56 0,0.32 0.22,0.55 0.52,0.55zm0 -1.24l0 0c0.39,0 0.69,0.28 0.69,0.69 0,0.4 -0.3,0.69 -0.69,0.69 -0.38,0 -0.67,-0.29 -0.67,-0.69 0,-0.42 0.31,-0.69 0.67,-0.69z"/>
    <path class="fil2" d="M8.91 3.76c0,-0.21 -0.09,-0.35 -0.29,-0.35 -0.19,0 -0.3,0.15 -0.3,0.37 0,0.84 0,0.84 0,0.84 -0.14,0 -0.14,0 -0.14,0 0,-1.32 0,-1.32 0,-1.32 0.14,0 0.14,0 0.14,0 0,0.13 0,0.13 0,0.13 0.05,-0.06 0.15,-0.15 0.32,-0.15 0.29,0 0.42,0.21 0.42,0.48 0,0.86 0,0.86 0,0.86 -0.15,0 -0.15,0 -0.15,0l0 -0.86z"/>
    <path class="fil2" d="M9.72 4.52c0.19,0 0.32,-0.13 0.32,-0.3 0,-0.18 -0.13,-0.31 -0.32,-0.31 -0.2,0 -0.31,0.13 -0.31,0.31 0,0.17 0.13,0.3 0.31,0.3zm0 -0.73l0 0c0.15,0 0.26,0.06 0.3,0.12 0,-0.17 0,-0.17 0,-0.17 0,-0.21 -0.09,-0.33 -0.28,-0.33 -0.2,0 -0.27,0.12 -0.29,0.25 -0.14,0 -0.14,0 -0.14,0 0,-0.21 0.16,-0.38 0.43,-0.38 0.28,0 0.44,0.19 0.44,0.48 0,0.86 0,0.86 0,0.86 -0.16,0 -0.16,0 -0.16,0 0,-0.12 0,-0.12 0,-0.12 -0.05,0.08 -0.15,0.16 -0.3,0.16 -0.25,0 -0.44,-0.18 -0.44,-0.44 0,-0.25 0.17,-0.43 0.44,-0.43z"/>
    <polygon class="fil2" points="10.6,4.62 10.46,4.62 10.46,2.82 10.6,2.82 "/>
   </g>
  </g>
 </g>
</svg>
